BenMoolmanBlog - World Import and Export Data
…
Visualizations

Load in data:

library(tidyverse)
library(dplyr)
library(ggplot2)
library(pander)
theme_set(theme_minimal())
library(here)
world_imp_exp <- read_csv(here("data/world_import_export.csv"))
world_imp_exp

# A tibble: 8,096 × 33
   `Partner Name`        Year `Export (US$ Thousand)` `Import (US$ Thousand)`
   <chr>                <dbl>                   <dbl>                   <dbl>
 1 Aruba                 1988                   3498.                    328.
 2 Afghanistan           1988                 213030.                  54460.
 3 Angola                1988                 375528.                 370703.
 4 Anguila               1988                    367.                      4 
 5 Albania               1988                  30104.                  47709.
 6 Andorra               1988                  67924.                   3284.
 7 Netherlands Antilles  1988                 104759.                  24964.
 8 United Arab Emirates  1988                2945350.                7091824.
 9 Argentina             1988                1136422.                1928596.
10 Antigua and Barbuda   1988                  14407.                   2174.
# ℹ 8,086 more rows
# ℹ 29 more variables: `Export Product Share (%)` <dbl>,
#   `Import Product Share (%)` <dbl>, `Revealed comparative advantage` <dbl>,
#   `World Growth (%)` <dbl>, `Country Growth (%)` <dbl>,
#   `AHS Simple Average (%)` <dbl>, `AHS Weighted Average (%)` <dbl>,
#   `AHS Total Tariff Lines` <dbl>,
#   `AHS Dutiable Tariff Lines Share (%)` <dbl>, …
…
